{
  "name": "",
  "isOrdered": true,
  "folders": {
    "bin": {
      "name": "bin",
      "isOrdered": true,
      "folders": {},
      "files": {}
    },
    "public": {
      "name": "public",
      "isOrdered": true,
      "folders": {
        "images": {
          "name": "images",
          "isOrdered": true,
          "folders": {},
          "files": {}
        },
        "javascripts": {
          "name": "javascripts",
          "isOrdered": true,
          "folders": {},
          "files": {}
        },
        "stylesheets": {
          "name": "stylesheets",
          "isOrdered": true,
          "folders": {},
          "files": {}
        }
      },
      "files": {}
    },
    "server": {
      "name": "server",
      "isOrdered": true,
      "folders": {
        "controller": {
          "name": "controller",
          "isOrdered": true,
          "folders": {},
          "files": {}
        },
        "routes": {
          "name": "routes",
          "isOrdered": true,
          "folders": {},
          "files": {}
        },
        "views": {
          "name": "views",
          "isOrdered": true,
          "folders": {},
          "files": {}
        }
      },
      "files": {}
    }
  },
  "files": {
    "README": 0
  }
}